Linear models: Pushing down and speeding up
…
Now load (and clean) the fuel price data (download it from GitHub [here]). It is a very simple star schema, with fuel prices per station and time as fact table:

pricesAll <- readRDS( "Prices_Demo.rds")%>%
  filter(E10 > 700, E10 < 3500, TimeAggID > 26425,
         ## choose TimeAggID filter to fit to your machine
         !is.na(CompE10)) 
pricesAll

## # A tibble: 4,859,838 x 4
##    StationID TimeAggID   E10 CompE10
##        <int>     <int> <int>   <int>
##  1         1     26426  1269    1450
##  2         1     26427  1269    1450
##  3         1     26428  1269    1450
##  4         1     26429  1269    1450
##  5         1     26430  1269    1439
##  6         1     26431  1269    1400
##  7         1     26432  1269    1308
##  8         1     26433  1269    1295
##  9         1     26434  1269    1290
## 10         1     26435  1269    1281
## # ... with 4,859,828 more rows

as well as dimension tables for stations and times:

timesAll <- readRDS( "E_prtimes.rds")
timesAll

## # A tibble: 27,528 x 6
##    TimeAggID DateHour DateDay HourCl  DayCl Brent
##        <int>    <int>   <int> <fctr> <fctr> <int>
##  1         1 14060800  140608 Hour00    Sun   501
##  2         2 14060801  140608 Hour01    Sun   501
##  3         3 14060802  140608 Hour02    Sun   501
##  4         4 14060803  140608 Hour03    Sun   501
##  5         5 14060804  140608 Hour04    Sun   501
##  6         6 14060805  140608 Hour05    Sun   501
##  7         7 14060806  140608 Hour06    Sun   501
##  8         8 14060807  140608 Hour07    Sun   501
##  9         9 14060808  140608 Hour08    Sun   501
## 10        10 14060809  140608 Hour09    Sun   501
## # ... with 27,518 more rows

stationsAll <- readRDS( "C_stationsAll_final.rds")

## add natural splines to stations 
NS <- as_data_frame( model.matrix( ~ -1 + ns(lat, df = 3):ns(lng, df = 3),   
                                   data = stationsAll ))

names(NS) <- paste0("NS",str_replace_all(names(NS), 
                      "\\:|ns\\(lat, df = \\d+\\)|ns\\(lng, df = \\d+\\)", ""))
stationsAll <- bind_cols(stationsAll, NS)
stationsAll

## # A tibble: 14,902 x 15
##    StationID brandCl       lng      lat isBAB closeBAB       NS11
##        <int>  <fctr>     <dbl>    <dbl> <int>    <int>      <dbl>
##  1         1  Others 10.850848 48.55568     0        0 0.39713860
##  2         2     BfT 10.920224 49.66159     0        0 0.43709986
##  3         3  Others  6.948950 51.16919     0        0 0.01966565
##  4         4  Others 11.451392 48.12189     0        1 0.37167161
##  5         5  Others 12.520820 48.24147     0        0 0.28931168
##  6         6  Others  7.586279 48.02442     0        0 0.06587314
##  7         7  Others 10.261920 47.52460     0        0 0.34155893
##  8         8  Others  9.424034 47.86324     0        0 0.27201896
##  9         9    Avia  9.825452 48.00048     0        0 0.31995881
## 10        10  Others  9.651461 47.82916     0        0 0.29700352
## # ... with 14,892 more rows, and 8 more variables: NS21 <dbl>, NS31 <dbl>,
## #   NS12 <dbl>, NS22 <dbl>, NS32 <dbl>, NS13 <dbl>, NS23 <dbl>, NS33 <dbl>
…
